dump.vcd
$date
	Wed Jan 28 17:40:46 2026
$end
$version
	Icarus Verilog
$end
$timescale
	1ps
$end
$scope module tb_packet_parser $end
$var wire 16 ! src_port [15:0] $end
$var wire 32 " src_ip [31:0] $end
$var wire 1 # parser_error $end
$var wire 1 $ parser_done $end
$var wire 1 % is_udp $end
$var wire 1 & is_tcp $end
$var wire 16 ' dst_port [15:0] $end
$var wire 32 ( dst_ip [31:0] $end
$var wire 1 ) checksum_ok $end
$var reg 1 * clk $end
$var reg 8 + data_in [7:0] $end
$var reg 1 , last_in $end
$var reg 1 - rst_n $end
$var reg 1 . valid_in $end
$var integer 32 / fail_cnt [31:0] $end
$var integer 32 0 pass_cnt [31:0] $end
$scope module dut $end
$var wire 1 ) checksum_ok $end
$var wire 1 * clk $end
$var wire 8 1 data_in [7:0] $end
$var wire 1 , last_in $end
$var wire 1 - rst_n $end
$var wire 1 . valid_in $end
$var wire 1 $ parser_done $end
$var parameter 16 2 ETH_TYPE_IPV4 $end
$var parameter 8 3 PROTO_TCP $end
$var parameter 8 4 PROTO_UDP $end
$var reg 16 5 byte_cnt [15:0] $end
$var reg 16 6 calc_checksum [15:0] $end
$var reg 8 7 captured_proto [7:0] $end
$var reg 1 8 checksum_ok_r $end
$var reg 3 9 current_state [2:0] $end
$var reg 32 : dst_ip [31:0] $end
$var reg 16 ; dst_port [15:0] $end
$var reg 1 < err_this_cycle $end
$var reg 32 = fold_stage_1 [31:0] $end
$var reg 32 > fold_stage_2 [31:0] $end
$var reg 32 ? fold_stage_3 [31:0] $end
$var reg 16 @ hdr_checksum [15:0] $end
$var reg 16 A ip_byte_cnt [15:0] $end
$var reg 16 B ip_len_bytes [15:0] $end
$var reg 32 C ip_sum_folded [31:0] $end
$var reg 32 D ip_sum_raw [31:0] $end
$var reg 1 & is_tcp $end
$var reg 1 % is_udp $end
$var reg 3 E next_state [2:0] $end
$var reg 1 # parser_error $end
$var reg 8 F prev_byte [7:0] $end
$var reg 32 G src_ip [31:0] $end
$var reg 16 H src_port [15:0] $end
$var reg 32 I sum0 [31:0] $end
$var reg 32 J sum1 [31:0] $end
$var integer 32 K i [31:0] $end
$var integer 32 L j [31:0] $end
$var integer 32 M k [31:0] $end
$upscope $end
$scope begin $unm_blk_57 $end
$var integer 32 N i [31:0] $end
$var integer 32 O timeout_icmp [31:0] $end
$upscope $end
$scope task build_packet $end
$var reg 1 P corrupt_chksum $end
$var reg 16 Q csum [15:0] $end
$var reg 32 R d_ip [31:0] $end
$var reg 16 S d_port [15:0] $end
$var reg 16 T eth_type [15:0] $end
$var reg 8 U proto [7:0] $end
$var reg 32 V s_ip [31:0] $end
$var reg 16 W s_port [15:0] $end
$var reg 32 X sum [31:0] $end
$var integer 32 Y i [31:0] $end
$upscope $end
$scope task verify_results $end
$upscope $end
$upscope $end
$enddefinitions $end
$comment Show the parameter values. $end
$dumpall
b10001 4
b110 3
b100000000000 2
$end
#0
$dumpvars
b0 Y
bx X
bx W
bx V
bx U
bx T
bx S
bx R
bx Q
xP
b0 O
b0 N
b111100 M
b111100 L
b111100 K
b0 J
b0 I
b0 H
b0 G
b0 F
b0 E
b0 D
b0 C
b10100 B
b0 A
b0 @
b0 ?
b0 >
b0 =
0<
b0 ;
b0 :
b0 9
08
b0 7
b1111111111111111 6
b0 5
b0 1
b0 0
b0 /
0.
0-
0,
b0 +
0*
0)
b0 (
b0 '
0&
0%
0$
0#
b0 "
b0 !
$end
#5000
b111100 M
1*
#10000
0*
#15000
b111100 M
1*
#20000
0*
#25000
b111100 M
1*
#30000
0*
#35000
b111100 M
1*
#40000
0*
#45000
1-
1*
#50000
0*
#55000
1*
#60000
0*
#65000
1*
#70000
0*
#75000
1*
#80000
0*
#85000
1*
#90000
0*
#95000
b1 E
b10101010 +
b10101010 1
1.
b1111100101110101 Q
b11010001010 X
b101110 Y
0P
b100000000000 T
b10010000 S
b10000000 W
b110 U
b11000000101010000000000000000010 R
b11000000101010000000000000000001 V
1*
#100000
0*
#105000
b1 5
b10101010 F
b1 9
b1 N
1*
#110000
0*
#115000
b10 5
b10 N
1*
#120000
0*
#125000
b11 5
b11 N
1*
#130000
0*
#135000
b100 5
b100 N
1*
#140000
0*
#145000
b101 5
b101 N
1*
#150000
0*
#155000
b110 5
b110 N
1*
#160000
0*
#165000
b111 5
b111 N
1*
#170000
0*
#175000
b1000 5
b1000 N
1*
#180000
0*
#185000
b1001 5
b1001 N
1*
#190000
0*
#195000
b1010 5
b1010 N
1*
#200000
0*
#205000
b1011 5
b1011 N
1*
#210000
0*
#215000
b1100 5
b1000 +
b1000 1
b1100 N
1*
#220000
0*
#225000
b10 E
b1000 F
b1101 5
b0 +
b0 1
b1101 N
1*
#230000
0*
#235000
b0 F
b0 5
b10 9
b1000101 +
b1000101 1
b111100 M
b1110 N
1*
#240000
0*
#245000
b1011101011111111 6
b100010100000000 J
b100010100000000 I
b111100 L
b100010100000000 C
b100010100000000 ?
b100010100000000 >
b100010100000000 =
b100010100000000 D
b111100 K
b1 A
b0 +
b0 1
b1111 N
1*
#250000
0*
#255000
b10 A
b10000 N
1*
#260000
0*
#265000
b11 A
b101110 +
b101110 1
b10001 N
1*
#270000
0*
#275000
b1011101011010001 6
b100010100101110 J
b111100 L
b100010100101110 I
b100010100101110 C
b100010100101110 ?
b100010100101110 >
b100010100101110 =
b111100 K
b100010100101110 D
b100 A
b0 +
b0 1
b10010 N
1*
#280000
0*
#285000
b101 A
b1 +
b1 1
b10011 N
1*
#290000
0*
#295000
b1011101011010000 6
b100010100101111 J
b111100 L
b100010100101111 I
b100010100101111 C
b100010100101111 ?
b100010100101111 >
b100010100101111 =
b111100 K
b100010100101111 D
b110 A
b0 +
b0 1
b10100 N
1*
#300000
0*
#305000
b111 A
b10101 N
1*
#310000
0*
#315000
b1000 A
b1000000 +
b1000000 1
b10110 N
1*
#320000
0*
#325000
b111101011010000 6
b1000010100101111 J
b111100 L
b1000010100101111 I
b1000010100101111 C
b1000010100101111 ?
b1000010100101111 >
b1000010100101111 =
b111100 K
b1000010100101111 D
b1001 A
b110 +
b110 1
b10111 N
1*
#330000
0*
#335000
b111101011001010 6
b1000010100110101 J
b111100 L
b1000010100110101 I
b1000010100110101 C
b1000010100110101 ?
b1000010100110101 >
b1000010100110101 =
b111100 K
b1000010100110101 D
b110 7
b1010 A
b11111001 +
b11111001 1
b11000 N
1*
#340000
0*
#345000
b111100 L
b1000010100110101 I
b1111100100000000 @
b111111000110110 C
b111111000110110 ?
b111111000110110 >
b111111000110110 =
b111100 K
b10111111000110101 D
b1011 A
b1110101 +
b1110101 1
b11001 N
1*
#350000
0*
#355000
b111100 L
b1000010100110101 I
b1111100101110101 @
b111111010101011 C
b111111010101011 ?
b111111010101011 >
b111111010101011 =
b111100 K
b10111111010101010 D
b1100 A
b11000000 +
b11000000 1
b11010 N
1*
#360000
0*
#365000
b1011101011001001 6
b100010100110110 J
b111100 L
b10100010100110101 I
b11111010101100 C
b11111010101100 ?
b11111010101100 >
b11111010101100 =
b111100 K
b100011111010101010 D
b11000000000000000000000000000000 "
b11000000000000000000000000000000 G
b1101 A
b10101000 +
b10101000 1
b11011 N
1*
#370000
0*
#375000
b1011101000100001 6
b100010111011110 J
b111100 L
b10100010111011101 I
b11111101010100 C
b11111101010100 ?
b11111101010100 >
b11111101010100 =
b111100 K
b100011111101010010 D
b11000000101010000000000000000000 "
b11000000101010000000000000000000 G
b1110 A
b0 +
b0 1
b11100 N
1*
#380000
0*
#385000
b1111 A
b1 +
b1 1
b11101 N
1*
#390000
0*
#395000
b1011101000100000 6
b100010111011111 J
b111100 L
b10100010111011110 I
b11111101010101 C
b11111101010101 ?
b11111101010101 >
b11111101010101 =
b111100 K
b100011111101010011 D
b11000000101010000000000000000001 "
b11000000101010000000000000000001 G
b10000 A
b11000000 +
b11000000 1
b11110 N
1*
#400000
0*
#405000
b1111101000011111 6
b10111100000 J
b111100 L
b100000010111011110 I
b1111111101010101 C
b1111111101010101 ?
b1111111101010101 >
b1111111101010101 =
b111100 K
b101111111101010011 D
b11000000000000000000000000000000 (
b11000000000000000000000000000000 :
b10001 A
b10101000 +
b10101000 1
b11111 N
1*
#410000
0*
#415000
b1111100101110111 6
b11010001000 J
b111100 L
b100000011010000110 I
b1111111111111101 C
b1111111111111101 ?
b1111111111111101 >
b1111111111111101 =
b111100 K
b101111111111111011 D
b11000000101010000000000000000000 (
b11000000101010000000000000000000 :
b10010 A
b0 +
b0 1
b100000 N
1*
#420000
0*
#425000
b11 E
b10011 A
b10 +
b10 1
b100001 N
1*
#430000
0*
#435000
b1111100101110101 6
b11010001010 J
b111100 L
b100000011010001000 I
b1111111111111111 C
b1111111111111111 ?
b1111111111111111 >
b1111111111111111 =
b111100 K
b101111111111111101 D
1&
b11000000101010000000000000000010 (
b11000000101010000000000000000010 :
b10100 A
b11 9
b0 +
b0 1
b100010 N
1*
#440000
0*
#445000
b1 5
b10000000 +
b10000000 1
b100011 N
1*
#450000
0*
#455000
b10000000 !
b10000000 H
b10 5
b0 +
b0 1
b100100 N
1*
#460000
0*
#465000
b100 E
b11 5
b10010000 +
b10010000 1
b100101 N
1*
#470000
0*
#475000
b10010000 '
b10010000 ;
b0 5
b100 9
b11111111 +
b11111111 1
b100110 N
1*
#480000
0*
#485000
b1 5
b100111 N
1*
#490000
0*
#495000
b10 5
b101000 N
1*
#500000
0*
#505000
b11 5
b101001 N
1*
#510000
0*
#515000
b100 5
b101010 N
1*
#520000
0*
#525000
b101 5
b101011 N
1*
#530000
0*
#535000
b110 5
b101100 N
1*
#540000
0*
#545000
b101 E
b111 5
1,
b101101 N
1*
#550000
0*
#555000
b0 E
b1000 5
1)
18
1$
b101 9
0,
0.
b101110 N
1*
#560000
0*
#565000
b0 5
0$
b0 9
1*
#570000
b1 0
0*
#575000
1*
#580000
0*
#585000
1*
#590000
0*
#595000
1*
#600000
0*
#605000
1*
#610000
0*
#615000
b1 E
b10101010 +
b10101010 1
1.
b0 N
b110100101110110 Q
b1001011010001010 X
b101110 Y
1P
b100010 S
b10001 W
b1010101011001100111011110001000 R
b10001001000100011001101000100 V
1*
#620000
0*
#625000
b1 5
b10101010 F
0&
0)
08
b1 9
b1 N
1*
#630000
0*
#635000
b10 5
b10 N
1*
#640000
0*
#645000
b11 5
b11 N
1*
#650000
0*
#655000
b100 5
b100 N
1*
#660000
0*
#665000
b101 5
b101 N
1*
#670000
0*
#675000
b110 5
b110 N
1*
#680000
0*
#685000
b111 5
b111 N
1*
#690000
0*
#695000
b1000 5
b1000 N
1*
#700000
0*
#705000
b1001 5
b1001 N
1*
#710000
0*
#715000
b1010 5
b1010 N
1*
#720000
0*
#725000
b1011 5
b1011 N
1*
#730000
0*
#735000
b1100 5
b1000 +
b1000 1
b1100 N
1*
#740000
0*
#745000
b10 E
b1000 F
b1101 5
b0 +
b0 1
b1101 N
1*
#750000
0*
#755000
b1111111111111111 6
b0 J
b111100 L
b0 I
b0 @
b0 C
b0 ?
b0 >
b0 =
b111100 K
b0 D
b0 F
b0 A
b0 5
b10 9
b1000101 +
b1000101 1
b111100 M
b1110 N
1*
#760000
0*
#765000
b1011101011111111 6
b100010100000000 J
b100010100000000 I
b111100 L
b100010100000000 C
b100010100000000 ?
b100010100000000 >
b100010100000000 =
b100010100000000 D
b111100 K
b1 A
b0 +
b0 1
b1111 N
1*
#770000
0*
#775000
b10 A
b10000 N
1*
#780000
0*
#785000
b11 A
b101110 +
b101110 1
b10001 N
1*
#790000
0*
#795000
b1011101011010001 6
b100010100101110 J
b111100 L
b100010100101110 I
b100010100101110 C
b100010100101110 ?
b100010100101110 >
b100010100101110 =
b111100 K
b100010100101110 D
b100 A
b0 +
b0 1
b10010 N
1*
#800000
0*
#805000
b101 A
b1 +
b1 1
b10011 N
1*
#810000
0*
#815000
b1011101011010000 6
b100010100101111 J
b111100 L
b100010100101111 I
b100010100101111 C
b100010100101111 ?
b100010100101111 >
b100010100101111 =
b111100 K
b100010100101111 D
b110 A
b0 +
b0 1
b10100 N
1*
#820000
0*
#825000
b111 A
b10101 N
1*
#830000
0*
#835000
b1000 A
b1000000 +
b1000000 1
b10110 N
1*
#840000
0*
#845000
b111101011010000 6
b1000010100101111 J
b111100 L
b1000010100101111 I
b1000010100101111 C
b1000010100101111 ?
b1000010100101111 >
b1000010100101111 =
b111100 K
b1000010100101111 D
b1001 A
b110 +
b110 1
b10111 N
1*
#850000
0*
#855000
b111101011001010 6
b1000010100110101 J
b111100 L
b1000010100110101 I
b1000010100110101 C
b1000010100110101 ?
b1000010100110101 >
b1000010100110101 =
b111100 K
b1000010100110101 D
b1010 A
b1101001 +
b1101001 1
b11000 N
1*
#860000
0*
#865000
b111100 L
b1000010100110101 I
b110100100000000 @
b1110111000110101 C
b1110111000110101 ?
b1110111000110101 >
b1110111000110101 =
b111100 K
b1110111000110101 D
b1011 A
b1110110 +
b1110110 1
b11001 N
1*
#870000
0*
#875000
b111100 L
b1000010100110101 I
b110100101110110 @
b1110111010101011 C
b1110111010101011 ?
b1110111010101011 >
b1110111010101011 =
b111100 K
b1110111010101011 D
b1100 A
b10001 +
b10001 1
b11010 N
1*
#880000
0*
#885000
b110100111001010 6
b1001011000110101 J
b111100 L
b1001011000110101 I
b1111111110101011 C
b1111111110101011 ?
b1111111110101011 >
b1111111110101011 =
b111100 K
b1111111110101011 D
b10001101010000000000000000001 "
b10001101010000000000000000001 G
b1101 A
b100010 +
b100010 1
b11011 N
1*
#890000
0*
#895000
b110100110101000 6
b1001011001010111 J
b111100 L
b1001011001010111 I
b1111111111001101 C
b1111111111001101 ?
b1111111111001101 >
b1111111111001101 =
b111100 K
b1111111111001101 D
b10001001000100000000000000001 "
b10001001000100000000000000001 G
b1110 A
b110011 +
b110011 1
b11100 N
1*
#900000
0*
#905000
b11011010101000 6
b1100100101010111 J
b111100 L
b1100100101010111 I
b11001011001110 C
b11001011001110 ?
b11001011001110 >
b11001011001110 =
b111100 K
b10011001011001101 D
b10001001000100011001100000001 "
b10001001000100011001100000001 G
b1111 A
b1000100 +
b1000100 1
b11101 N
1*
#910000
0*
#915000
b11011001100100 6
b1100100110011011 J
b111100 L
b1100100110011011 I
b11001100010010 C
b11001100010010 ?
b11001100010010 >
b11001100010010 =
b111100 K
b10011001100010001 D
b10001001000100011001101000100 "
b10001001000100011001101000100 G
b10000 A
b1010101 +
b1010101 1
b11110 N
1*
#920000
0*
#925000
b1110000101100011 6
b1111010011100 J
b111100 L
b10001111010011011 I
b1000100000010010 C
b1000100000010010 ?
b1000100000010010 >
b1000100000010010 =
b111100 K
b11000100000010001 D
b1010101101010000000000000000010 (
b1010101101010000000000000000010 :
b10001 A
b1100110 +
b1100110 1
b11111 N
1*
#930000
0*
#935000
b1110000011111101 6
b1111100000010 J
b111100 L
b10001111100000001 I
b1000100001111000 C
b1000100001111000 ?
b1000100001111000 >
b1000100001111000 =
b111100 K
b11000100001110111 D
b1010101011001100000000000000010 (
b1010101011001100000000000000010 :
b10010 A
b1110111 +
b1110111 1
b100000 N
1*
#940000
0*
#945000
b110100111111101 6
b1001011000000010 J
b111100 L
b11001011000000001 I
b1111111101111000 C
b1111111101111000 ?
b1111111101111000 >
b1111111101111000 =
b111100 K
b11111111101110111 D
b11 E
b1010101011001100111011100000010 (
b1010101011001100111011100000010 :
b10011 A
b10001000 +
b10001000 1
b100001 N
1*
#950000
0*
#955000
b110100101110101 6
b1001011010001010 J
b111100 L
b11001011010001001 I
b1 C
b1 ?
b1 >
b10000000000000000 =
b111100 K
b11111111111111111 D
1&
b1010101011001100111011110001000 (
b1010101011001100111011110001000 :
b10100 A
b11 9
b0 +
b0 1
b100010 N
1*
#960000
0*
#965000
b1 5
b10001 +
b10001 1
b100011 N
1*
#970000
0*
#975000
b10001 !
b10001 H
b10 5
b0 +
b0 1
b100100 N
1*
#980000
0*
#985000
b100 E
b11 5
b100010 +
b100010 1
b100101 N
1*
#990000
0*
#995000
b100010 '
b100010 ;
b0 5
b100 9
b11111111 +
b11111111 1
b100110 N
1*
#1000000
0*
#1005000
b1 5
b100111 N
1*
#1010000
0*
#1015000
b10 5
b101000 N
1*
#1020000
0*
#1025000
b11 5
b101001 N
1*
#1030000
0*
#1035000
b100 5
b101010 N
1*
#1040000
0*
#1045000
b101 5
b101011 N
1*
#1050000
0*
#1055000
b110 5
b101100 N
1*
#1060000
0*
#1065000
b101 E
b111 5
1,
b101101 N
1*
#1070000
0*
#1075000
b0 E
b1000 5
1$
b101 9
0,
0.
b101110 N
1*
#1080000
0*
#1085000
b0 5
0$
b0 9
1*
#1090000
b10 0
0*
#1095000
1*
#1100000
0*
#1105000
1*
#1110000
0*
#1115000
1*
#1120000
0*
#1125000
1*
#1130000
0*
#1135000
b1 E
b10101010 +
b10101010 1
1.
b0 N
b1101011100100110 Q
b10100011011001 X
b101110 Y
0P
b11100000111000001110000011100000 R
b11110000111100001111000011110000 V
1*
#1140000
0*
#1145000
b1 5
b10101010 F
0&
b1 9
b1 N
1*
#1150000
0*
#1155000
b10 5
b10 N
1*
#1160000
0*
#1165000
b11 5
b11 N
1*
#1170000
0*
#1175000
b100 5
b100 N
1*
#1180000
0*
#1185000
b101 5
b101 N
1*
#1190000
0*
#1195000
b110 5
b110 N
1*
#1200000
0*
#1205000
b111 5
b111 N
1*
#1210000
0*
#1215000
b1000 5
b1000 N
1*
#1220000
0*
#1225000
b1001 5
b1001 N
1*
#1230000
0*
#1235000
b1010 5
b1010 N
1*
#1240000
0*
#1245000
b1011 5
b1011 N
1*
#1250000
0*
#1255000
b1100 5
b1000 +
b1000 1
b1100 N
1*
#1260000
0*
#1265000
b10 E
b1000 F
b1101 5
b0 +
b0 1
b1101 N
1*
#1270000
0*
#1275000
b1111111111111111 6
b0 J
b111100 L
b0 I
b0 @
b0 C
b0 ?
b0 >
b0 =
b111100 K
b0 D
b0 F
b0 A
b0 5
b10 9
b1000101 +
b1000101 1
b111100 M
b1110 N
1*
#1280000
0*
#1285000
b1011101011111111 6
b100010100000000 J
b100010100000000 I
b111100 L
b100010100000000 C
b100010100000000 ?
b100010100000000 >
b100010100000000 =
b100010100000000 D
b111100 K
b1 A
b0 +
b0 1
b1111 N
1*
#1290000
0*
#1295000
b10 A
b10000 N
1*
#1300000
0*
#1305000
1<
b101 E
b11 A
1,
b101110 +
b101110 1
b10001 N
1*
#1310000
0*
#1315000
b1011101011010001 6
b100010100101110 J
b111100 L
b100010100101110 I
b100010100101110 C
b100010100101110 ?
b100010100101110 >
b100010100101110 =
b111100 K
b100010100101110 D
0<
b0 E
1#
b100 A
1$
b101 9
0,
0.
b10010 N
1*
#1320000
0*
#1325000
0$
b0 9
1*
#1330000
b11 0
0*
#1335000
1*
#1340000
0*
#1345000
1*
#1350000
0*
#1355000
1*
#1360000
0*
#1365000
1*
#1370000
0*
#1375000
b1 E
b10101010 +
b10101010 1
1.
b0 N
b1010111001011 Q
b1110101000110100 X
b101110 Y
b0 S
b0 W
b1 U
b10111011000000000000000000000010 R
b10101010000000000000000000000001 V
1*
#1380000
0*
#1385000
b1 5
b10101010 F
0#
b1 9
b1 N
1*
#1390000
0*
#1395000
b10 5
b10 N
1*
#1400000
0*
#1405000
b11 5
b11 N
1*
#1410000
0*
#1415000
b100 5
b100 N
1*
#1420000
0*
#1425000
b101 5
b101 N
1*
#1430000
0*
#1435000
b110 5
b110 N
1*
#1440000
0*
#1445000
b111 5
b111 N
1*
#1450000
0*
#1455000
b1000 5
b1000 N
1*
#1460000
0*
#1465000
b1001 5
b1001 N
1*
#1470000
0*
#1475000
b1010 5
b1010 N
1*
#1480000
0*
#1485000
b1011 5
b1011 N
1*
#1490000
0*
#1495000
b1100 5
b1000 +
b1000 1
b1100 N
1*
#1500000
0*
#1505000
b10 E
b1000 F
b1101 5
b0 +
b0 1
b1101 N
1*
#1510000
0*
#1515000
b1111111111111111 6
b0 J
b111100 L
b0 I
b0 C
b0 ?
b0 >
b0 =
b111100 K
b0 D
b0 F
b0 A
b0 5
b10 9
b1000101 +
b1000101 1
b111100 M
b1110 N
1*
#1520000
0*
#1525000
b1011101011111111 6
b100010100000000 J
b100010100000000 I
b111100 L
b100010100000000 C
b100010100000000 ?
b100010100000000 >
b100010100000000 =
b100010100000000 D
b111100 K
b1 A
b0 +
b0 1
b1111 N
1*
#1530000
0*
#1535000
b10 A
b10000 N
1*
#1540000
0*
#1545000
b11 A
b101110 +
b101110 1
b10001 N
1*
#1550000
0*
#1555000
b1011101011010001 6
b100010100101110 J
b111100 L
b100010100101110 I
b100010100101110 C
b100010100101110 ?
b100010100101110 >
b100010100101110 =
b111100 K
b100010100101110 D
b100 A
b0 +
b0 1
b10010 N
1*
#1560000
0*
#1565000
b101 A
b1 +
b1 1
b10011 N
1*
#1570000
0*
#1575000
b1011101011010000 6
b100010100101111 J
b111100 L
b100010100101111 I
b100010100101111 C
b100010100101111 ?
b100010100101111 >
b100010100101111 =
b111100 K
b100010100101111 D
b110 A
b0 +
b0 1
b10100 N
1*
#1580000
0*
#1585000
b111 A
b10101 N
1*
#1590000
0*
#1595000
b1000 A
b1000000 +
b1000000 1
b10110 N
1*
#1600000
0*
#1605000
b111101011010000 6
b1000010100101111 J
b111100 L
b1000010100101111 I
b1000010100101111 C
b1000010100101111 ?
b1000010100101111 >
b1000010100101111 =
b111100 K
b1000010100101111 D
b1001 A
b1 +
b1 1
b10111 N
1*
#1610000
0*
#1615000
b111101011001111 6
b1000010100110000 J
b111100 L
b1000010100110000 I
b1000010100110000 C
b1000010100110000 ?
b1000010100110000 >
b1000010100110000 =
b111100 K
b1000010100110000 D
b1 7
b1010 A
b10101 +
b10101 1
b11000 N
1*
#1620000
0*
#1625000
b111100 L
b1000010100110000 I
b1010100000000 @
b1001101000110000 C
b1001101000110000 ?
b1001101000110000 >
b1001101000110000 =
b111100 K
b1001101000110000 D
b1011 A
b11001011 +
b11001011 1
b11001 N
1*
#1630000
0*
#1635000
b111100 L
b1000010100110000 I
b1010111001011 @
b1001101011111011 C
b1001101011111011 ?
b1001101011111011 >
b1001101011111011 =
b111100 K
b1001101011111011 D
b1100 A
b10101010 +
b10101010 1
b11010 N
1*
#1640000
0*
#1645000
b1101000011001110 6
b10111100110001 J
b111100 L
b10010111100110000 I
b100010011111100 C
b100010011111100 ?
b100010011111100 >
b100010011111100 =
b111100 K
b10100010011111011 D
b10101010001000100011001101000100 "
b10101010001000100011001101000100 G
b1101 A
b0 +
b0 1
b11011 N
1*
#1650000
0*
#1655000
b10101010000000000011001101000100 "
b10101010000000000011001101000100 G
b1110 A
b11100 N
1*
#1660000
0*
#1665000
b10101010000000000000000001000100 "
b10101010000000000000000001000100 G
b1111 A
b1 +
b1 1
b11101 N
1*
#1670000
0*
#1675000
b1101000011001101 6
b10111100110010 J
b111100 L
b10010111100110001 I
b100010011111101 C
b100010011111101 ?
b100010011111101 >
b100010011111101 =
b111100 K
b10100010011111100 D
b10101010000000000000000000000001 "
b10101010000000000000000000000001 G
b10000 A
b10111011 +
b10111011 1
b11110 N
1*
#1680000
0*
#1685000
b1010111001101 6
b1110101000110010 J
b111100 L
b11110101000110001 I
b1111111111111101 C
b1111111111111101 ?
b1111111111111101 >
b1111111111111101 =
b111100 K
b11111111111111100 D
b10111011011001100111011110001000 (
b10111011011001100111011110001000 :
b10001 A
b0 +
b0 1
b11111 N
1*
#1690000
0*
#1695000
b10111011000000000111011110001000 (
b10111011000000000111011110001000 :
b10010 A
b100000 N
1*
#1700000
0*
#1705000
b100 E
b10111011000000000000000010001000 (
b10111011000000000000000010001000 :
b10011 A
b10 +
b10 1
b100001 N
1*
#1710000
0*
#1715000
b1010111001011 6
b1110101000110100 J
b111100 L
b11110101000110011 I
b1111111111111111 C
b1111111111111111 ?
b1111111111111111 >
b1111111111111111 =
b111100 K
b11111111111111110 D
b10111011000000000000000000000010 (
b10111011000000000000000000000010 :
b10100 A
b100 9
b0 +
b0 1
b100010 N
1*
#1720000
0*
#1725000
b1 5
b100011 N
1*
#1730000
0*
#1735000
b10 5
b100100 N
1*
#1740000
0*
#1745000
b11 5
b100101 N
1*
#1750000
0*
#1755000
b100 5
b11111111 +
b11111111 1
b100110 N
1*
#1760000
0*
#1765000
b101 5
b100111 N
1*
#1770000
0*
#1775000
b110 5
b101000 N
1*
#1780000
0*
#1785000
b111 5
b101001 N
1*
#1790000
0*
#1795000
b1000 5
b101010 N
1*
#1800000
0*
#1805000
b1001 5
b101011 N
1*
#1810000
0*
#1815000
b1010 5
b101100 N
1*
#1820000
0*
#1825000
b101 E
b1011 5
1,
b101101 N
1*
#1830000
0*
#1835000
b0 E
b1100 5
1)
18
1$
b101 9
0,
0.
b101110 N
1*
#1840000
0*
#1845000
b0 5
0$
b0 9
b100 0
b1 O
1*
